JournalAnalysis Vignette • JournalAnalysis
…
Accessing and analyzing journal data

View unique journals based on the articles retrieved with the below command.

pub_data$journals
#> # A tibble: 455 x 18
#>     Rank Title Type    SJR SJR.Best.Quarti~ H.index Total.Docs...20~
#>    <int> <fct> <fct> <dbl> <fct>              <int>            <int>
#>  1     6 Cell  jour~  26.9 Q1                   655              693
#>  2    13 Natu~ jour~  20.9 Q1                   496              259
#>  3    14 Natu~ jour~  20.3 Q1                   361              335
#>  4    16 Natu~ jour~  19.5 Q1                   224              306
#>  5    18 Natu~ jour~  19.0 Q1                   337              172
#>  6    19 Natu~ jour~  18.7 Q1                   242              232
#>  7    20 Natu~ jour~  18.1 Q1                  1011             2661
#>  8    22 Phys~ jour~  16.9 Q1                   293               31
#>  9    23 Immu~ jour~  16.5 Q1                   329              284
#> 10    30 Natu~ jour~  14.5 Q1                   323              224
#> # ... with 445 more rows, and 11 more variables:
#> #   Total.Docs...3years. <int>, Total.Refs. <int>,
#> #   Total.Cites..3years. <int>, Citable.Docs...3years. <int>,
#> #   Cites...Doc...2years. <dbl>, Ref....Doc. <dbl>, Country <fct>,
#> #   Categories <fct>, ISSN <chr>, ISSN.1 <fct>, ISSN.2 <fct>
…
# Decide on categorical words to keep
cats <- "Multidisciplinary|Neuroscience|Psychology|Psychiatry"

Select “best” journals based on median or any other statistical method. It may be valuable to do some clustering although the journals are ranked into quartiles. We chose the median SJR to look at any journals above the median and qualify them as the upper tier.

# Only keep journals above the median that are journals and include the categories above.
best_journals <- filter(pub_data$journals, SJR >= median(pub_data$journals$SJR) & grepl(cats, Categories) & Type == "journal")

After filtering the journal data, you can now select specific columns to view and save your tibble as a csv file.

# Decide on columns to keep
best_journals <- best_journals %>% select(Title, Rank, Type, SJR, Country, Categories)

best_journals
#> # A tibble: 69 x 6
#>    Title         Rank Type     SJR Country   Categories                   
#>    <fct>        <int> <fct>  <dbl> <fct>     <fct>                        
#>  1 Nature Revi~    18 journ~ 19.0  United K~ Neuroscience (miscellaneous)~
#>  2 Nature          20 journ~ 18.1  United K~ Multidisciplinary (Q1)       
#>  3 Nature Neur~    35 journ~ 14.1  United K~ Neuroscience (miscellaneous)~
#>  4 Science         38 journ~ 13.5  United S~ History and Philosophy of Sc~
#>  5 Neuron          63 journ~ 11.1  United S~ Neuroscience (miscellaneous)~
#>  6 Psychologic~    88 journ~  9.00 United S~ History and Philosophy of Sc~
#>  7 JAMA Psychi~    92 journ~  8.83 United S~ Arts and Humanities (miscell~
#>  8 Trends in N~   138 journ~  7.27 Netherla~ Neuroscience (miscellaneous)~
#>  9 Molecular P~   154 journ~  6.92 United K~ Cellular and Molecular Neuro~
#> 10 EMBO Journal   164 journ~  6.57 Germany   Biochemistry, Genetics and M~
#> # ... with 59 more rows
…
